<?xml version="1.0" encoding="utf-8"?>
<!-- Generator: Adobe Illustrator 19.2.0, SVG Export Plug-In . SVG Version: 6.00 Build 0)  -->
<svg version="1.1" id="Capa_1" xmlns="http://www.w3.org/2000/svg" xmlns:xlink="http://www.w3.org/1999/xlink" x="0px" y="0px"
	 viewBox="0 0 30 30" style="enable-background:new 0 0 30 30;" xml:space="preserve">
<style type="text/css">
	.st0{fill:#FFFFFF;}
</style>
<path class="st0" d="M26.8,12.4c-0.1-0.2-0.3-0.2-0.5-0.2h-6.1V9.9c0-1.5-0.6-2.9-1.7-3.8c-1-0.8-2.2-1.2-3.5-1.2
	c-2.6,0-5.2,1.7-5.2,4.9v2.3H3.7c-0.2,0-0.4,0.1-0.5,0.2c-0.1,0.2-0.2,0.3-0.1,0.6l3.8,11.8C7,25,7.2,25.2,7.5,25.2h15
	c0.2,0,0.5-0.2,0.6-0.4L26.9,13C26.9,12.7,26.8,12.5,26.8,12.4z M11,9.7C11,7.2,13.1,6,15,6c1,0,2.1,0.3,2.8,1
	C18.6,7.7,19,8.7,19,9.9v2.2h-8V9.7z M22,23.9H7.9L4.5,13.3h5.3V16c0,0.3,0.2,0.6,0.6,0.6c0.4,0,0.6-0.2,0.6-0.6v-2.6h8V16
	c0,0.3,0.2,0.6,0.6,0.6s0.6-0.2,0.6-0.6v-2.6h5L22,23.9z"/>
</svg>
